{
	"previewText": [
		{
			"time": 0,
			"content": "/**/",
			"action": "setCode",
			"language": "css"
		},
		{
			"time": 0,
			"content": "<p class='text'>This text will be replaced.</p>\n",
			"action": "setCode",
			"language": "html"
		},
		{
			"time": 27,
			"content": "<script>\n",
			"action": "addCode",
			"language": "html"
		},
		{
			"time": 32,
			"content": "$(function() { \n\t",
			"action": "addCode",
			"language": "javascript"
		},
		{
			"time": 46,
			"content": "$('.text')",
			"action": "addCode",
			"language": "javascript"
		},
		{
			"time": 51,
			"content": ".html",
			"action": "addCode",
			"language": "javascript"
		},
		{
			"time": 60,
			"content": "('replaced!'); \n}); \n",
			"action": "addCode",
			"language": "javascript"
		},
		{
			"time": 65,
			"content": "</script>\n<p class='text'></p>",
			"action": "addCode",
			"language": "html"
		}
	]
}